aula_07/simulation/qsim/computador.msim.vcd
$comment
	File created using the following command:
		vcd file computador.msim.vcd -direction
$end
$date
	Tue Sep 28 04:11:50 2021
$end
$version
	ModelSim Version 2020.1
$end
$timescale
	1ps
$end

$scope module computador_vhd_vec_tst $end
$var wire 1 ! CLOCK $end
$var wire 1 " DOUT [7] $end
$var wire 1 # DOUT [6] $end
$var wire 1 $ DOUT [5] $end
$var wire 1 % DOUT [4] $end
$var wire 1 & DOUT [3] $end
$var wire 1 ' DOUT [2] $end
$var wire 1 ( DOUT [1] $end
$var wire 1 ) DOUT [0] $end
$var wire 1 * HAB_ESC $end
$var wire 1 + HAB_LEI $end
$var wire 1 , KEY [3] $end
$var wire 1 - KEY [2] $end
$var wire 1 . KEY [1] $end
$var wire 1 / KEY [0] $end
$var wire 1 0 LED_R [9] $end
$var wire 1 1 LED_R [8] $end
$var wire 1 2 LED_R [7] $end
$var wire 1 3 LED_R [6] $end
$var wire 1 4 LED_R [5] $end
$var wire 1 5 LED_R [4] $end
$var wire 1 6 LED_R [3] $end
$var wire 1 7 LED_R [2] $end
$var wire 1 8 LED_R [1] $end
$var wire 1 9 LED_R [0] $end
$var wire 1 : PC [8] $end
$var wire 1 ; PC [7] $end
$var wire 1 < PC [6] $end
$var wire 1 = PC [5] $end
$var wire 1 > PC [4] $end
$var wire 1 ? PC [3] $end
$var wire 1 @ PC [2] $end
$var wire 1 A PC [1] $end
$var wire 1 B PC [0] $end
$var wire 1 C SAIDA [12] $end
$var wire 1 D SAIDA [11] $end
$var wire 1 E SAIDA [10] $end
$var wire 1 F SAIDA [9] $end
$var wire 1 G SAIDA [8] $end
$var wire 1 H SAIDA [7] $end
$var wire 1 I SAIDA [6] $end
$var wire 1 J SAIDA [5] $end
$var wire 1 K SAIDA [4] $end
$var wire 1 L SAIDA [3] $end
$var wire 1 M SAIDA [2] $end
$var wire 1 N SAIDA [1] $end
$var wire 1 O SAIDA [0] $end

$scope module i1 $end
$var wire 1 P gnd $end
$var wire 1 Q vcc $end
$var wire 1 R unknown $end
$var wire 1 S devoe $end
$var wire 1 T devclrn $end
$var wire 1 U devpor $end
$var wire 1 V ww_devoe $end
$var wire 1 W ww_devclrn $end
$var wire 1 X ww_devpor $end
$var wire 1 Y ww_CLOCK $end
$var wire 1 Z ww_KEY [3] $end
$var wire 1 [ ww_KEY [2] $end
$var wire 1 \ ww_KEY [1] $end
$var wire 1 ] ww_KEY [0] $end
$var wire 1 ^ ww_PC [8] $end
$var wire 1 _ ww_PC [7] $end
$var wire 1 ` ww_PC [6] $end
$var wire 1 a ww_PC [5] $end
$var wire 1 b ww_PC [4] $end
$var wire 1 c ww_PC [3] $end
$var wire 1 d ww_PC [2] $end
$var wire 1 e ww_PC [1] $end
$var wire 1 f ww_PC [0] $end
$var wire 1 g ww_SAIDA [12] $end
$var wire 1 h ww_SAIDA [11] $end
$var wire 1 i ww_SAIDA [10] $end
$var wire 1 j ww_SAIDA [9] $end
$var wire 1 k ww_SAIDA [8] $end
$var wire 1 l ww_SAIDA [7] $end
$var wire 1 m ww_SAIDA [6] $end
$var wire 1 n ww_SAIDA [5] $end
$var wire 1 o ww_SAIDA [4] $end
$var wire 1 p ww_SAIDA [3] $end
$var wire 1 q ww_SAIDA [2] $end
$var wire 1 r ww_SAIDA [1] $end
$var wire 1 s ww_SAIDA [0] $end
$var wire 1 t ww_DOUT [7] $end
$var wire 1 u ww_DOUT [6] $end
$var wire 1 v ww_DOUT [5] $end
$var wire 1 w ww_DOUT [4] $end
$var wire 1 x ww_DOUT [3] $end
$var wire 1 y ww_DOUT [2] $end
$var wire 1 z ww_DOUT [1] $end
$var wire 1 { ww_DOUT [0] $end
$var wire 1 | ww_HAB_LEI $end
$var wire 1 } ww_HAB_ESC $end
$var wire 1 ~ ww_LED_R [9] $end
$var wire 1 !! ww_LED_R [8] $end
$var wire 1 "! ww_LED_R [7] $end
$var wire 1 #! ww_LED_R [6] $end
$var wire 1 $! ww_LED_R [5] $end
$var wire 1 %! ww_LED_R [4] $end
$var wire 1 &! ww_LED_R [3] $end
$var wire 1 '! ww_LED_R [2] $end
$var wire 1 (! ww_LED_R [1] $end
$var wire 1 )! ww_LED_R [0] $end
$var wire 1 *! \CLOCK~input_o\ $end
$var wire 1 +! \KEY[1]~input_o\ $end
$var wire 1 ,! \KEY[2]~input_o\ $end
$var wire 1 -! \KEY[3]~input_o\ $end
$var wire 1 .! \PC[0]~output_o\ $end
$var wire 1 /! \PC[1]~output_o\ $end
$var wire 1 0! \PC[2]~output_o\ $end
$var wire 1 1! \PC[3]~output_o\ $end
$var wire 1 2! \PC[4]~output_o\ $end
$var wire 1 3! \PC[5]~output_o\ $end
$var wire 1 4! \PC[6]~output_o\ $end
$var wire 1 5! \PC[7]~output_o\ $end
$var wire 1 6! \PC[8]~output_o\ $end
$var wire 1 7! \SAIDA[0]~output_o\ $end
$var wire 1 8! \SAIDA[1]~output_o\ $end
$var wire 1 9! \SAIDA[2]~output_o\ $end
$var wire 1 :! \SAIDA[3]~output_o\ $end
$var wire 1 ;! \SAIDA[4]~output_o\ $end
$var wire 1 <! \SAIDA[5]~output_o\ $end
$var wire 1 =! \SAIDA[6]~output_o\ $end
$var wire 1 >! \SAIDA[7]~output_o\ $end
$var wire 1 ?! \SAIDA[8]~output_o\ $end
$var wire 1 @! \SAIDA[9]~output_o\ $end
$var wire 1 A! \SAIDA[10]~output_o\ $end
$var wire 1 B! \SAIDA[11]~output_o\ $end
$var wire 1 C! \SAIDA[12]~output_o\ $end
$var wire 1 D! \DOUT[0]~output_o\ $end
$var wire 1 E! \DOUT[1]~output_o\ $end
$var wire 1 F! \DOUT[2]~output_o\ $end
$var wire 1 G! \DOUT[3]~output_o\ $end
$var wire 1 H! \DOUT[4]~output_o\ $end
$var wire 1 I! \DOUT[5]~output_o\ $end
$var wire 1 J! \DOUT[6]~output_o\ $end
$var wire 1 K! \DOUT[7]~output_o\ $end
$var wire 1 L! \HAB_LEI~output_o\ $end
$var wire 1 M! \HAB_ESC~output_o\ $end
$var wire 1 N! \LED_R[0]~output_o\ $end
$var wire 1 O! \LED_R[1]~output_o\ $end
$var wire 1 P! \LED_R[2]~output_o\ $end
$var wire 1 Q! \LED_R[3]~output_o\ $end
$var wire 1 R! \LED_R[4]~output_o\ $end
$var wire 1 S! \LED_R[5]~output_o\ $end
$var wire 1 T! \LED_R[6]~output_o\ $end
$var wire 1 U! \LED_R[7]~output_o\ $end
$var wire 1 V! \LED_R[8]~output_o\ $end
$var wire 1 W! \LED_R[9]~output_o\ $end
$var wire 1 X! \KEY[0]~input_o\ $end
$var wire 1 Y! \CPU|INSTR|SOMA_CONST|Add0~5_sumout\ $end
$var wire 1 Z! \ROM|memROM~1_combout\ $end
$var wire 1 [! \ROM|memROM~5_combout\ $end
$var wire 1 \! \ROM|memROM~11_combout\ $end
$var wire 1 ]! \ROM|memROM~12_combout\ $end
$var wire 1 ^! \ROM|memROM~13_combout\ $end
$var wire 1 _! \ROM|memROM~15_combout\ $end
$var wire 1 `! \ROM|memROM~16_combout\ $end
$var wire 1 a! \CPU|LOG_DESVIO|DESV_JUMP[0]~0_combout\ $end
$var wire 1 b! \CPU|INSTR|SOMA_CONST|Add0~6\ $end
$var wire 1 c! \CPU|INSTR|SOMA_CONST|Add0~9_sumout\ $end
$var wire 1 d! \ROM|memROM~3_combout\ $end
$var wire 1 e! \ROM|memROM~4_combout\ $end
$var wire 1 f! \CPU|INSTR|SOMA_CONST|Add0~10\ $end
$var wire 1 g! \CPU|INSTR|SOMA_CONST|Add0~13_sumout\ $end
$var wire 1 h! \ROM|memROM~6_combout\ $end
$var wire 1 i! \CPU|INSTR|SOMA_CONST|Add0~14\ $end
$var wire 1 j! \CPU|INSTR|SOMA_CONST|Add0~17_sumout\ $end
$var wire 1 k! \ROM|memROM~7_combout\ $end
$var wire 1 l! \CPU|INSTR|SOMA_CONST|Add0~18\ $end
$var wire 1 m! \CPU|INSTR|SOMA_CONST|Add0~21_sumout\ $end
$var wire 1 n! \CPU|INSTR|SOMA_CONST|Add0~22\ $end
$var wire 1 o! \CPU|INSTR|SOMA_CONST|Add0~25_sumout\ $end
$var wire 1 p! \ROM|memROM~8_combout\ $end
$var wire 1 q! \CPU|INSTR|SOMA_CONST|Add0~26\ $end
$var wire 1 r! \CPU|INSTR|SOMA_CONST|Add0~29_sumout\ $end
$var wire 1 s! \CPU|INSTR|SOMA_CONST|Add0~30\ $end
$var wire 1 t! \CPU|INSTR|SOMA_CONST|Add0~33_sumout\ $end
$var wire 1 u! \CPU|INSTR|SOMA_CONST|Add0~34\ $end
$var wire 1 v! \CPU|INSTR|SOMA_CONST|Add0~1_sumout\ $end
$var wire 1 w! \ROM|memROM~9_combout\ $end
$var wire 1 x! \ROM|memROM~10_combout\ $end
$var wire 1 y! \ROM|memROM~0_combout\ $end
$var wire 1 z! \ROM|memROM~2_combout\ $end
$var wire 1 {! \ROM|memROM~14_combout\ $end
$var wire 1 |! \CPU|DECODER|Equal10~1_combout\ $end
$var wire 1 }! \ROM|memROM~17_combout\ $end
$var wire 1 ~! \RAM|ram~558_combout\ $end
$var wire 1 !" \RAM|ram~15_q\ $end
$var wire 1 "" \RAM|ram~557_combout\ $end
$var wire 1 #" \RAM|ram~23_q\ $end
$var wire 1 $" \RAM|ram~527_combout\ $end
$var wire 1 %" \RAM|ram~556_combout\ $end
$var wire 1 &" \RAM|ram~31_q\ $end
$var wire 1 '" \RAM|ram~528_combout\ $end
$var wire 1 (" \RAM|ram~529_combout\ $end
$var wire 1 )" \RAM|ram~530_combout\ $end
$var wire 1 *" \CPU|ULA1|Add0~1_sumout\ $end
$var wire 1 +" \CPU|DECODER|sinais_controle~1_combout\ $end
$var wire 1 ," \CPU|ULA1|Add1~34_cout\ $end
$var wire 1 -" \CPU|ULA1|Add1~1_sumout\ $end
$var wire 1 ." \CPU|ULA1|saida[0]~0_combout\ $end
$var wire 1 /" \CPU|DECODER|Equal10~2_combout\ $end
$var wire 1 0" \CPU|DECODER|sinais_controle~2_combout\ $end
$var wire 1 1" \ROM|memROM~18_combout\ $end
$var wire 1 2" \RAM|ram~16_q\ $end
$var wire 1 3" \RAM|ram~24_q\ $end
$var wire 1 4" \RAM|ram~531_combout\ $end
$var wire 1 5" \RAM|ram~32_q\ $end
$var wire 1 6" \RAM|ram~532_combout\ $end
$var wire 1 7" \RAM|ram~533_combout\ $end
$var wire 1 8" \RAM|ram~534_combout\ $end
$var wire 1 9" \CPU|ULA1|Add0~2\ $end
$var wire 1 :" \CPU|ULA1|Add0~5_sumout\ $end
$var wire 1 ;" \CPU|ULA1|Add1~2\ $end
$var wire 1 <" \CPU|ULA1|Add1~5_sumout\ $end
$var wire 1 =" \CPU|ULA1|saida[1]~1_combout\ $end
$var wire 1 >" \RAM|ram~17_q\ $end
$var wire 1 ?" \RAM|ram~25_q\ $end
$var wire 1 @" \RAM|ram~535_combout\ $end
$var wire 1 A" \RAM|ram~33_q\ $end
$var wire 1 B" \RAM|ram~536_combout\ $end
$var wire 1 C" \RAM|ram~537_combout\ $end
$var wire 1 D" \CPU|ULA1|Add0~6\ $end
$var wire 1 E" \CPU|ULA1|Add0~9_sumout\ $end
$var wire 1 F" \RAM|ram~538_combout\ $end
$var wire 1 G" \CPU|ULA1|Add1~6\ $end
$var wire 1 H" \CPU|ULA1|Add1~9_sumout\ $end
$var wire 1 I" \CPU|ULA1|saida[2]~2_combout\ $end
$var wire 1 J" \RAM|ram~18_q\ $end
$var wire 1 K" \RAM|ram~26_q\ $end
$var wire 1 L" \RAM|ram~539_combout\ $end
$var wire 1 M" \RAM|ram~34_q\ $end
$var wire 1 N" \RAM|ram~540_combout\ $end
$var wire 1 O" \RAM|ram~541_combout\ $end
$var wire 1 P" \RAM|ram~542_combout\ $end
$var wire 1 Q" \CPU|ULA1|Add0~10\ $end
$var wire 1 R" \CPU|ULA1|Add0~13_sumout\ $end
$var wire 1 S" \CPU|ULA1|Add1~10\ $end
$var wire 1 T" \CPU|ULA1|Add1~13_sumout\ $end
$var wire 1 U" \CPU|ULA1|saida[3]~3_combout\ $end
$var wire 1 V" \RAM|ram~19_q\ $end
$var wire 1 W" \RAM|ram~27_q\ $end
$var wire 1 X" \RAM|ram~543_combout\ $end
$var wire 1 Y" \RAM|ram~35_q\ $end
$var wire 1 Z" \RAM|ram~544_combout\ $end
$var wire 1 [" \RAM|ram~545_combout\ $end
$var wire 1 \" \CPU|ULA1|Add0~14\ $end
$var wire 1 ]" \CPU|ULA1|Add0~17_sumout\ $end
$var wire 1 ^" \CPU|ULA1|Add1~14\ $end
$var wire 1 _" \CPU|ULA1|Add1~17_sumout\ $end
$var wire 1 `" \CPU|ULA1|saida[4]~4_combout\ $end
$var wire 1 a" \RAM|ram~20_q\ $end
$var wire 1 b" \RAM|ram~28_q\ $end
$var wire 1 c" \RAM|ram~546_combout\ $end
$var wire 1 d" \RAM|ram~36_q\ $end
$var wire 1 e" \RAM|ram~547_combout\ $end
$var wire 1 f" \RAM|ram~548_combout\ $end
$var wire 1 g" \RAM|ram~549_combout\ $end
$var wire 1 h" \CPU|ULA1|Add0~18\ $end
$var wire 1 i" \CPU|ULA1|Add0~21_sumout\ $end
$var wire 1 j" \CPU|ULA1|Add1~18\ $end
$var wire 1 k" \CPU|ULA1|Add1~21_sumout\ $end
$var wire 1 l" \CPU|ULA1|saida[5]~5_combout\ $end
$var wire 1 m" \RAM|ram~21_q\ $end
$var wire 1 n" \RAM|ram~29_q\ $end
$var wire 1 o" \RAM|ram~550_combout\ $end
$var wire 1 p" \RAM|ram~37_q\ $end
$var wire 1 q" \RAM|ram~551_combout\ $end
$var wire 1 r" \RAM|ram~552_combout\ $end
$var wire 1 s" \CPU|ULA1|Add0~22\ $end
$var wire 1 t" \CPU|ULA1|Add0~25_sumout\ $end
$var wire 1 u" \CPU|ULA1|Add1~22\ $end
$var wire 1 v" \CPU|ULA1|Add1~25_sumout\ $end
$var wire 1 w" \CPU|ULA1|saida[6]~6_combout\ $end
$var wire 1 x" \RAM|ram~22_q\ $end
$var wire 1 y" \RAM|ram~30_q\ $end
$var wire 1 z" \RAM|ram~38_q\ $end
$var wire 1 {" \RAM|ram~553_combout\ $end
$var wire 1 |" \RAM|ram~554_combout\ $end
$var wire 1 }" \RAM|ram~555_combout\ $end
$var wire 1 ~" \CPU|ULA1|Add0~26\ $end
$var wire 1 !# \CPU|ULA1|Add0~29_sumout\ $end
$var wire 1 "# \CPU|ULA1|Add1~26\ $end
$var wire 1 ## \CPU|ULA1|Add1~29_sumout\ $end
$var wire 1 $# \CPU|ULA1|saida[7]~7_combout\ $end
$var wire 1 %# \CPU|DECODER|sinais_controle~0_combout\ $end
$var wire 1 &# \CPU|DECODER|Equal10~0_combout\ $end
$var wire 1 '# \LED8|FLIPS|DOUT~q\ $end
$var wire 1 (# \LED9|FLIPS|DOUT~q\ $end
$var wire 1 )# \CPU|INSTR|PC|DOUT\ [8] $end
$var wire 1 *# \CPU|INSTR|PC|DOUT\ [7] $end
$var wire 1 +# \CPU|INSTR|PC|DOUT\ [6] $end
$var wire 1 ,# \CPU|INSTR|PC|DOUT\ [5] $end
$var wire 1 -# \CPU|INSTR|PC|DOUT\ [4] $end
$var wire 1 .# \CPU|INSTR|PC|DOUT\ [3] $end
$var wire 1 /# \CPU|INSTR|PC|DOUT\ [2] $end
$var wire 1 0# \CPU|INSTR|PC|DOUT\ [1] $end
$var wire 1 1# \CPU|INSTR|PC|DOUT\ [0] $end
$var wire 1 2# \CPU|REG_A|DOUT\ [7] $end
$var wire 1 3# \CPU|REG_A|DOUT\ [6] $end
$var wire 1 4# \CPU|REG_A|DOUT\ [5] $end
$var wire 1 5# \CPU|REG_A|DOUT\ [4] $end
$var wire 1 6# \CPU|REG_A|DOUT\ [3] $end
$var wire 1 7# \CPU|REG_A|DOUT\ [2] $end
$var wire 1 8# \CPU|REG_A|DOUT\ [1] $end
$var wire 1 9# \CPU|REG_A|DOUT\ [0] $end
$var wire 1 :# \LEDR|REG_8bits|DOUT\ [7] $end
$var wire 1 ;# \LEDR|REG_8bits|DOUT\ [6] $end
$var wire 1 <# \LEDR|REG_8bits|DOUT\ [5] $end
$var wire 1 =# \LEDR|REG_8bits|DOUT\ [4] $end
$var wire 1 ># \LEDR|REG_8bits|DOUT\ [3] $end
$var wire 1 ?# \LEDR|REG_8bits|DOUT\ [2] $end
$var wire 1 @# \LEDR|REG_8bits|DOUT\ [1] $end
$var wire 1 A# \LEDR|REG_8bits|DOUT\ [0] $end
$var wire 1 B# \ROM|ALT_INV_memROM~18_combout\ $end
$var wire 1 C# \ROM|ALT_INV_memROM~17_combout\ $end
$var wire 1 D# \RAM|ALT_INV_ram~555_combout\ $end
$var wire 1 E# \RAM|ALT_INV_ram~554_combout\ $end
$var wire 1 F# \RAM|ALT_INV_ram~553_combout\ $end
$var wire 1 G# \RAM|ALT_INV_ram~38_q\ $end
$var wire 1 H# \RAM|ALT_INV_ram~30_q\ $end
$var wire 1 I# \RAM|ALT_INV_ram~22_q\ $end
$var wire 1 J# \RAM|ALT_INV_ram~552_combout\ $end
$var wire 1 K# \RAM|ALT_INV_ram~551_combout\ $end
$var wire 1 L# \RAM|ALT_INV_ram~37_q\ $end
$var wire 1 M# \RAM|ALT_INV_ram~550_combout\ $end
$var wire 1 N# \RAM|ALT_INV_ram~29_q\ $end
$var wire 1 O# \RAM|ALT_INV_ram~21_q\ $end
$var wire 1 P# \RAM|ALT_INV_ram~549_combout\ $end
$var wire 1 Q# \RAM|ALT_INV_ram~548_combout\ $end
$var wire 1 R# \RAM|ALT_INV_ram~547_combout\ $end
$var wire 1 S# \RAM|ALT_INV_ram~36_q\ $end
$var wire 1 T# \RAM|ALT_INV_ram~546_combout\ $end
$var wire 1 U# \RAM|ALT_INV_ram~28_q\ $end
$var wire 1 V# \RAM|ALT_INV_ram~20_q\ $end
$var wire 1 W# \RAM|ALT_INV_ram~545_combout\ $end
$var wire 1 X# \RAM|ALT_INV_ram~544_combout\ $end
$var wire 1 Y# \RAM|ALT_INV_ram~35_q\ $end
$var wire 1 Z# \RAM|ALT_INV_ram~543_combout\ $end
$var wire 1 [# \RAM|ALT_INV_ram~27_q\ $end
$var wire 1 \# \RAM|ALT_INV_ram~19_q\ $end
$var wire 1 ]# \RAM|ALT_INV_ram~542_combout\ $end
$var wire 1 ^# \RAM|ALT_INV_ram~541_combout\ $end
$var wire 1 _# \RAM|ALT_INV_ram~540_combout\ $end
$var wire 1 `# \RAM|ALT_INV_ram~34_q\ $end
$var wire 1 a# \RAM|ALT_INV_ram~539_combout\ $end
$var wire 1 b# \RAM|ALT_INV_ram~26_q\ $end
$var wire 1 c# \RAM|ALT_INV_ram~18_q\ $end
$var wire 1 d# \RAM|ALT_INV_ram~538_combout\ $end
$var wire 1 e# \RAM|ALT_INV_ram~537_combout\ $end
$var wire 1 f# \RAM|ALT_INV_ram~536_combout\ $end
$var wire 1 g# \RAM|ALT_INV_ram~33_q\ $end
$var wire 1 h# \RAM|ALT_INV_ram~535_combout\ $end
$var wire 1 i# \RAM|ALT_INV_ram~25_q\ $end
$var wire 1 j# \RAM|ALT_INV_ram~17_q\ $end
$var wire 1 k# \RAM|ALT_INV_ram~534_combout\ $end
$var wire 1 l# \RAM|ALT_INV_ram~533_combout\ $end
$var wire 1 m# \RAM|ALT_INV_ram~532_combout\ $end
$var wire 1 n# \RAM|ALT_INV_ram~32_q\ $end
$var wire 1 o# \RAM|ALT_INV_ram~531_combout\ $end
$var wire 1 p# \RAM|ALT_INV_ram~24_q\ $end
$var wire 1 q# \RAM|ALT_INV_ram~16_q\ $end
$var wire 1 r# \CPU|DECODER|ALT_INV_sinais_controle~1_combout\ $end
$var wire 1 s# \RAM|ALT_INV_ram~530_combout\ $end
$var wire 1 t# \RAM|ALT_INV_ram~529_combout\ $end
$var wire 1 u# \RAM|ALT_INV_ram~528_combout\ $end
$var wire 1 v# \RAM|ALT_INV_ram~31_q\ $end
$var wire 1 w# \RAM|ALT_INV_ram~527_combout\ $end
$var wire 1 x# \RAM|ALT_INV_ram~23_q\ $end
$var wire 1 y# \RAM|ALT_INV_ram~15_q\ $end
$var wire 1 z# \CPU|DECODER|ALT_INV_Equal10~1_combout\ $end
$var wire 1 {# \ROM|ALT_INV_memROM~16_combout\ $end
$var wire 1 |# \ROM|ALT_INV_memROM~15_combout\ $end
$var wire 1 }# \ROM|ALT_INV_memROM~14_combout\ $end
$var wire 1 ~# \ROM|ALT_INV_memROM~13_combout\ $end
$var wire 1 !$ \ROM|ALT_INV_memROM~12_combout\ $end
$var wire 1 "$ \ROM|ALT_INV_memROM~11_combout\ $end
$var wire 1 #$ \ROM|ALT_INV_memROM~9_combout\ $end
$var wire 1 $$ \ROM|ALT_INV_memROM~8_combout\ $end
$var wire 1 %$ \ROM|ALT_INV_memROM~7_combout\ $end
$var wire 1 &$ \ROM|ALT_INV_memROM~6_combout\ $end
$var wire 1 '$ \ROM|ALT_INV_memROM~5_combout\ $end
$var wire 1 ($ \ROM|ALT_INV_memROM~4_combout\ $end
$var wire 1 )$ \ROM|ALT_INV_memROM~3_combout\ $end
$var wire 1 *$ \ROM|ALT_INV_memROM~2_combout\ $end
$var wire 1 +$ \ROM|ALT_INV_memROM~1_combout\ $end
$var wire 1 ,$ \ROM|ALT_INV_memROM~0_combout\ $end
$var wire 1 -$ \CPU|ULA1|ALT_INV_Add1~29_sumout\ $end
$var wire 1 .$ \CPU|ULA1|ALT_INV_Add1~25_sumout\ $end
$var wire 1 /$ \CPU|ULA1|ALT_INV_Add1~21_sumout\ $end
$var wire 1 0$ \CPU|ULA1|ALT_INV_Add1~17_sumout\ $end
$var wire 1 1$ \CPU|ULA1|ALT_INV_Add1~13_sumout\ $end
$var wire 1 2$ \CPU|ULA1|ALT_INV_Add1~9_sumout\ $end
$var wire 1 3$ \CPU|ULA1|ALT_INV_Add1~5_sumout\ $end
$var wire 1 4$ \CPU|ULA1|ALT_INV_Add1~1_sumout\ $end
$var wire 1 5$ \CPU|REG_A|ALT_INV_DOUT\ [7] $end
$var wire 1 6$ \CPU|REG_A|ALT_INV_DOUT\ [6] $end
$var wire 1 7$ \CPU|REG_A|ALT_INV_DOUT\ [5] $end
$var wire 1 8$ \CPU|REG_A|ALT_INV_DOUT\ [4] $end
$var wire 1 9$ \CPU|REG_A|ALT_INV_DOUT\ [3] $end
$var wire 1 :$ \CPU|REG_A|ALT_INV_DOUT\ [2] $end
$var wire 1 ;$ \CPU|REG_A|ALT_INV_DOUT\ [1] $end
$var wire 1 <$ \CPU|REG_A|ALT_INV_DOUT\ [0] $end
$var wire 1 =$ \CPU|INSTR|PC|ALT_INV_DOUT\ [8] $end
$var wire 1 >$ \CPU|INSTR|PC|ALT_INV_DOUT\ [7] $end
$var wire 1 ?$ \CPU|INSTR|PC|ALT_INV_DOUT\ [6] $end
$var wire 1 @$ \CPU|INSTR|PC|ALT_INV_DOUT\ [5] $end
$var wire 1 A$ \CPU|INSTR|PC|ALT_INV_DOUT\ [4] $end
$var wire 1 B$ \CPU|INSTR|PC|ALT_INV_DOUT\ [3] $end
$var wire 1 C$ \CPU|INSTR|PC|ALT_INV_DOUT\ [2] $end
$var wire 1 D$ \CPU|INSTR|PC|ALT_INV_DOUT\ [1] $end
$var wire 1 E$ \CPU|INSTR|PC|ALT_INV_DOUT\ [0] $end
$upscope $end
$upscope $end
$enddefinitions $end
#0
$dumpvars
x!
0*
0+
0P
1Q
xR
1S
1T
1U
1V
1W
1X
xY
0|
0}
x*!
x+!
x,!
x-!
0.!
0/!
00!
01!
02!
03!
04!
05!
06!
17!
08!
09!
0:!
0;!
0<!
0=!
0>!
0?!
0@!
0A!
1B!
0C!
0D!
0E!
0F!
0G!
0H!
0I!
0J!
0K!
0L!
0M!
0N!
0O!
0P!
0Q!
0R!
0S!
0T!
0U!
0V!
0W!
0X!
1Y!
1Z!
1[!
0\!
0]!
0^!
0_!
1`!
0a!
0b!
0c!
0d!
0e!
0f!
0g!
0h!
0i!
0j!
0k!
0l!
0m!
0n!
0o!
0p!
0q!
0r!
0s!
0t!
0u!
0v!
0w!
0x!
1y!
1z!
0{!
1|!
1}!
0~!
0!"
0""
0#"
0$"
0%"
0&"
0'"
0("
0)"
1*"
1+"
1,"
1-"
1."
1/"
10"
01"
02"
03"
04"
05"
06"
07"
08"
09"
0:"
0;"
1<"
0="
0>"
0?"
0@"
0A"
0B"
0C"
0D"
0E"
0F"
0G"
1H"
0I"
0J"
0K"
0L"
0M"
0N"
0O"
0P"
0Q"
0R"
0S"
1T"
0U"
0V"
0W"
0X"
0Y"
0Z"
0["
0\"
0]"
0^"
1_"
0`"
0a"
0b"
0c"
0d"
0e"
0f"
0g"
0h"
0i"
0j"
1k"
0l"
0m"
0n"
0o"
0p"
0q"
0r"
0s"
0t"
0u"
1v"
0w"
0x"
0y"
0z"
0{"
0|"
0}"
0~"
0!#
0"#
1##
0$#
0%#
0&#
0'#
0(#
1B#
0C#
1D#
1E#
1F#
1G#
1H#
1I#
1J#
1K#
1L#
1M#
1N#
1O#
1P#
1Q#
1R#
1S#
1T#
1U#
1V#
1W#
1X#
1Y#
1Z#
1[#
1\#
1]#
1^#
1_#
1`#
1a#
1b#
1c#
1d#
1e#
1f#
1g#
1h#
1i#
1j#
1k#
1l#
1m#
1n#
1o#
1p#
1q#
0r#
1s#
1t#
1u#
1v#
1w#
1x#
1y#
0z#
0{#
1|#
1}#
1~#
1!$
1"$
1#$
1$$
1%$
1&$
0'$
1($
1)$
0*$
0+$
0,$
0-$
0.$
0/$
00$
01$
02$
03$
04$
x,
x-
x.
0/
xZ
x[
x\
0]
0^
0_
0`
0a
0b
0c
0d
0e
0f
0g
1h
0i
0j
0k
0l
0m
0n
0o
0p
0q
0r
1s
0t
0u
0v
0w
0x
0y
0z
0{
0~
0!!
0"!
0#!
0$!
0%!
0&!
0'!
0(!
0)!
0)#
0*#
0+#
0,#
0-#
0.#
0/#
00#
01#
02#
03#
04#
05#
06#
07#
08#
09#
0:#
0;#
0<#
0=#
0>#
0?#
0@#
0A#
15$
16$
17$
18$
19$
1:$
1;$
1<$
1=$
1>$
1?$
1@$
1A$
1B$
1C$
1D$
1E$
0"
0#
0$
0%
0&
0'
0(
0)
00
01
02
03
04
05
06
07
08
09
0:
0;
0<
0=
0>
0?
0@
0A
0B
0C
1D
0E
0F
0G
0H
0I
0J
0K
0L
0M
0N
1O
$end
#25000
1/
1]
1X!
11#
19#
0<$
0E$
0Y!
1b!
1\!
0y!
1~!
0*"
19"
0-"
1;"
14$
1,$
0"$
1D!
0<"
1G"
1:"
1c!
1]!
1&#
0z!
0}!
13$
1{
0H"
1S"
1C#
1*$
0!$
1)
12$
0|!
0+"
00"
0."
1*"
09"
1-"
0T"
1^"
11$
04$
1r#
1z#
07!
1M!
1@!
0_"
1j"
0:"
1`"
1l"
1w"
1$#
1."
10$
0s
1}
1j
0k"
1u"
0O
1F
1*
0`"
1/$
0v"
1"#
0l"
1.$
0##
0w"
1-$
0$#
#50000
0/
0]
0X!
#75000
1/
1]
1X!
01#
10#
1!"
1A#
1'#
1(#
0y#
0D$
1E$
1Y!
0b!
0\!
1^!
1_!
0c!
1f!
0~!
1$"
0w#
0|#
0~#
1"$
1W!
1V!
1N!
1g!
1c!
0f!
0]!
1{!
0`!
1%#
0&#
1("
1~
1!!
1)!
0g!
0t#
1{#
0}#
1!$
19
11
10
0/"
10"
1)"
0s#
0M!
1L!
0B!
1A!
0@!
0*"
19"
0-"
0}
1|
0h
1i
0j
14$
0*
1+
0F
1E
0D
1:"
0."
#100000
0/
0]
0X!
#125000
1/
1]
1X!
11#
09#
18#
0;$
1<$
0E$
0Y!
1b!
1\!
0^!
0_!
1y!
1""
1*"
09"
1-"
0;"
0:"
1D"
1<"
03$
04$
0,$
1|#
1~#
0"$
1E!
0D!
1E"
0<"
1:"
0D"
0c!
1f!
1]!
0{!
1`!
0%#
1&#
1z!
1}!
1."
1="
13$
1z
0{
1g!
0E"
0C#
0*$
0{#
1}#
0!$
0)
1(
0="
1/"
00"
0$"
1w#
17!
1M!
0L!
1B!
0A!
1@!
0("
1s
1}
0|
1h
0i
1j
1t#
1O
1F
0E
1D
1*
0+
0)"
1s#
0*"
0-"
1;"
14$
1<"
0."
03$
1="
#150000
0/
0]
0X!
#175000
1/
1]
1X!
01#
00#
1/#
13"
0A#
1@#
0'#
0(#
0p#
0C$
1D$
1E$
1Y!
0b!
1c!
0f!
1_!
0g!
1i!
0y!
0""
14"
0o#
1,$
0|#
0W!
0V!
1O!
0N!
1j!
1g!
0i!
0c!
0`!
1%#
0&#
0z!
0}!
17"
0~
0!!
1(!
0)!
0j!
0l#
1C#
1*$
1{#
09
18
01
00
1+"
10"
1$"
04"
18"
0k#
1o#
0w#
0r#
07!
0M!
1L!
0B!
1("
07"
0:"
1D"
0<"
0s
0}
1|
0h
13$
1l#
0t#
0O
0D
0*
1+
1E"
1)"
08"
1k#
0s#
1*"
1-"
0;"
1."
1:"
0D"
1<"
0="
03$
04$
0E"
0<"
13$
#200000
0/
0]
0X!
