aula_05/simulation/qsim/computador.msim.vcd
$comment
	File created using the following command:
		vcd file computador.msim.vcd -direction
$end
$date
	Thu Sep 23 22:25:35 2021
$end
$version
	ModelSim Version 2020.1
$end
$timescale
	1ps
$end

$scope module computador_vhd_vec_tst $end
$var wire 1 ! CLOCK_50 $end
$var wire 1 " DEST [8] $end
$var wire 1 # DEST [7] $end
$var wire 1 $ DEST [6] $end
$var wire 1 % DEST [5] $end
$var wire 1 & DEST [4] $end
$var wire 1 ' DEST [3] $end
$var wire 1 ( DEST [2] $end
$var wire 1 ) DEST [1] $end
$var wire 1 * DEST [0] $end
$var wire 1 + FLAG_JMP $end
$var wire 1 , KEY [3] $end
$var wire 1 - KEY [2] $end
$var wire 1 . KEY [1] $end
$var wire 1 / KEY [0] $end
$var wire 1 0 SAIDA [7] $end
$var wire 1 1 SAIDA [6] $end
$var wire 1 2 SAIDA [5] $end
$var wire 1 3 SAIDA [4] $end
$var wire 1 4 SAIDA [3] $end
$var wire 1 5 SAIDA [2] $end
$var wire 1 6 SAIDA [1] $end
$var wire 1 7 SAIDA [0] $end

$scope module i1 $end
$var wire 1 8 gnd $end
$var wire 1 9 vcc $end
$var wire 1 : unknown $end
$var wire 1 ; devoe $end
$var wire 1 < devclrn $end
$var wire 1 = devpor $end
$var wire 1 > ww_devoe $end
$var wire 1 ? ww_devclrn $end
$var wire 1 @ ww_devpor $end
$var wire 1 A ww_CLOCK_50 $end
$var wire 1 B ww_KEY [3] $end
$var wire 1 C ww_KEY [2] $end
$var wire 1 D ww_KEY [1] $end
$var wire 1 E ww_KEY [0] $end
$var wire 1 F ww_SAIDA [7] $end
$var wire 1 G ww_SAIDA [6] $end
$var wire 1 H ww_SAIDA [5] $end
$var wire 1 I ww_SAIDA [4] $end
$var wire 1 J ww_SAIDA [3] $end
$var wire 1 K ww_SAIDA [2] $end
$var wire 1 L ww_SAIDA [1] $end
$var wire 1 M ww_SAIDA [0] $end
$var wire 1 N ww_FLAG_JMP $end
$var wire 1 O ww_DEST [8] $end
$var wire 1 P ww_DEST [7] $end
$var wire 1 Q ww_DEST [6] $end
$var wire 1 R ww_DEST [5] $end
$var wire 1 S ww_DEST [4] $end
$var wire 1 T ww_DEST [3] $end
$var wire 1 U ww_DEST [2] $end
$var wire 1 V ww_DEST [1] $end
$var wire 1 W ww_DEST [0] $end
$var wire 1 X \CLOCK_50~input_o\ $end
$var wire 1 Y \KEY[1]~input_o\ $end
$var wire 1 Z \KEY[2]~input_o\ $end
$var wire 1 [ \KEY[3]~input_o\ $end
$var wire 1 \ \SAIDA[0]~output_o\ $end
$var wire 1 ] \SAIDA[1]~output_o\ $end
$var wire 1 ^ \SAIDA[2]~output_o\ $end
$var wire 1 _ \SAIDA[3]~output_o\ $end
$var wire 1 ` \SAIDA[4]~output_o\ $end
$var wire 1 a \SAIDA[5]~output_o\ $end
$var wire 1 b \SAIDA[6]~output_o\ $end
$var wire 1 c \SAIDA[7]~output_o\ $end
$var wire 1 d \FLAG_JMP~output_o\ $end
$var wire 1 e \DEST[0]~output_o\ $end
$var wire 1 f \DEST[1]~output_o\ $end
$var wire 1 g \DEST[2]~output_o\ $end
$var wire 1 h \DEST[3]~output_o\ $end
$var wire 1 i \DEST[4]~output_o\ $end
$var wire 1 j \DEST[5]~output_o\ $end
$var wire 1 k \DEST[6]~output_o\ $end
$var wire 1 l \DEST[7]~output_o\ $end
$var wire 1 m \DEST[8]~output_o\ $end
$var wire 1 n \KEY[0]~input_o\ $end
$var wire 1 o \INSTR|SOMA_CONST|Add0~1_sumout\ $end
$var wire 1 p \INSTR|MUX2|saida_MUX[0]~0_combout\ $end
$var wire 1 q \INSTR|ROM|memROM~11_combout\ $end
$var wire 1 r \INSTR|ROM|memROM~12_combout\ $end
$var wire 1 s \INSTR|SOMA_CONST|Add0~2\ $end
$var wire 1 t \INSTR|SOMA_CONST|Add0~6\ $end
$var wire 1 u \INSTR|SOMA_CONST|Add0~10\ $end
$var wire 1 v \INSTR|SOMA_CONST|Add0~13_sumout\ $end
$var wire 1 w \INSTR|MUX2|saida_MUX[3]~3_combout\ $end
$var wire 1 x \INSTR|SOMA_CONST|Add0~14\ $end
$var wire 1 y \INSTR|SOMA_CONST|Add0~33_sumout\ $end
$var wire 1 z \INSTR|MUX2|saida_MUX[4]~8_combout\ $end
$var wire 1 { \INSTR|SOMA_CONST|Add0~34\ $end
$var wire 1 | \INSTR|SOMA_CONST|Add0~29_sumout\ $end
$var wire 1 } \INSTR|MUX2|saida_MUX[5]~7_combout\ $end
$var wire 1 ~ \INSTR|SOMA_CONST|Add0~30\ $end
$var wire 1 !! \INSTR|SOMA_CONST|Add0~25_sumout\ $end
$var wire 1 "! \INSTR|MUX2|saida_MUX[6]~6_combout\ $end
$var wire 1 #! \INSTR|ROM|memROM~5_combout\ $end
$var wire 1 $! \INSTR|ROM|memROM~9_combout\ $end
$var wire 1 %! \INSTR|ROM|memROM~10_combout\ $end
$var wire 1 &! \INSTR|SOMA_CONST|Add0~9_sumout\ $end
$var wire 1 '! \INSTR|MUX2|saida_MUX[2]~2_combout\ $end
$var wire 1 (! \INSTR|ROM|memROM~8_combout\ $end
$var wire 1 )! \INSTR|SOMA_CONST|Add0~5_sumout\ $end
$var wire 1 *! \INSTR|MUX2|saida_MUX[1]~1_combout\ $end
$var wire 1 +! \INSTR|ROM|memROM~0_combout\ $end
$var wire 1 ,! \INSTR|ROM|memROM~2_combout\ $end
$var wire 1 -! \INSTR|ROM|memROM~3_combout\ $end
$var wire 1 .! \MUX1|saida_MUX[7]~1_combout\ $end
$var wire 1 /! \INSTR|ROM|memROM~1_combout\ $end
$var wire 1 0! \INSTR|ROM|memROM~15_combout\ $end
$var wire 1 1! \DECODER|OP_ULA[1]~0_combout\ $end
$var wire 1 2! \MUX1|saida_MUX[7]~0_combout\ $end
$var wire 1 3! \ULA1|saida[4]~4_combout\ $end
$var wire 1 4! \DECODER|HAB_A~0_combout\ $end
$var wire 1 5! \INSTR|ROM|memROM~13_combout\ $end
$var wire 1 6! \MDADOS|process_0~0_combout\ $end
$var wire 1 7! \MDADOS|ram~161_combout\ $end
$var wire 1 8! \MDADOS|ram~21_q\ $end
$var wire 1 9! \MDADOS|ram~153_combout\ $end
$var wire 1 :! \MDADOS|ram~154_combout\ $end
$var wire 1 ;! \MDADOS|ram~17_q\ $end
$var wire 1 <! \MDADOS|ram~145_combout\ $end
$var wire 1 =! \MDADOS|ram~146_combout\ $end
$var wire 1 >! \INSTR|ROM|memROM~6_combout\ $end
$var wire 1 ?! \INSTR|ROM|memROM~16_combout\ $end
$var wire 1 @! \ULA1|Add1~34_cout\ $end
$var wire 1 A! \ULA1|Add1~2\ $end
$var wire 1 B! \ULA1|Add1~5_sumout\ $end
$var wire 1 C! \ULA1|saida[1]~1_combout\ $end
$var wire 1 D! \MDADOS|ram~18_q\ $end
$var wire 1 E! \MDADOS|ram~147_combout\ $end
$var wire 1 F! \MDADOS|ram~148_combout\ $end
$var wire 1 G! \ULA1|Add1~6\ $end
$var wire 1 H! \ULA1|Add1~9_sumout\ $end
$var wire 1 I! \ULA1|saida[2]~2_combout\ $end
$var wire 1 J! \MDADOS|ram~19_q\ $end
$var wire 1 K! \MDADOS|ram~149_combout\ $end
$var wire 1 L! \MDADOS|ram~150_combout\ $end
$var wire 1 M! \ULA1|Add1~10\ $end
$var wire 1 N! \ULA1|Add1~13_sumout\ $end
$var wire 1 O! \ULA1|saida[3]~3_combout\ $end
$var wire 1 P! \MDADOS|ram~20_q\ $end
$var wire 1 Q! \MDADOS|ram~151_combout\ $end
$var wire 1 R! \MDADOS|ram~152_combout\ $end
$var wire 1 S! \ULA1|Add1~14\ $end
$var wire 1 T! \ULA1|Add1~17_sumout\ $end
$var wire 1 U! \INSTR|ROM|memROM~17_combout\ $end
$var wire 1 V! \ULA1|saida[5]~5_combout\ $end
$var wire 1 W! \MDADOS|ram~22_q\ $end
$var wire 1 X! \MDADOS|ram~155_combout\ $end
$var wire 1 Y! \MDADOS|ram~156_combout\ $end
$var wire 1 Z! \ULA1|Add1~18\ $end
$var wire 1 [! \ULA1|Add1~21_sumout\ $end
$var wire 1 \! \ULA1|saida[6]~6_combout\ $end
$var wire 1 ]! \MDADOS|ram~23_q\ $end
$var wire 1 ^! \MDADOS|ram~157_combout\ $end
$var wire 1 _! \MDADOS|ram~158_combout\ $end
$var wire 1 `! \ULA1|Add1~22\ $end
$var wire 1 a! \ULA1|Add1~25_sumout\ $end
$var wire 1 b! \ULA1|saida[7]~7_combout\ $end
$var wire 1 c! \MDADOS|ram~24_q\ $end
$var wire 1 d! \MDADOS|ram~159_combout\ $end
$var wire 1 e! \MDADOS|ram~160_combout\ $end
$var wire 1 f! \ULA1|Add1~26\ $end
$var wire 1 g! \ULA1|Add1~29_sumout\ $end
$var wire 1 h! \FLAG|DOUT~1_combout\ $end
$var wire 1 i! \ULA1|Add1~1_sumout\ $end
$var wire 1 j! \FLAG|DOUT~2_combout\ $end
$var wire 1 k! \FLAG|DOUT~0_combout\ $end
$var wire 1 l! \FLAG|DOUT~q\ $end
$var wire 1 m! \LOG_DESVIO|DESV_JUMP~0_combout\ $end
$var wire 1 n! \INSTR|SOMA_CONST|Add0~26\ $end
$var wire 1 o! \INSTR|SOMA_CONST|Add0~21_sumout\ $end
$var wire 1 p! \INSTR|MUX2|saida_MUX[7]~5_combout\ $end
$var wire 1 q! \INSTR|ROM|memROM~4_combout\ $end
$var wire 1 r! \INSTR|ROM|memROM~14_combout\ $end
$var wire 1 s! \INSTR|SOMA_CONST|Add0~22\ $end
$var wire 1 t! \INSTR|SOMA_CONST|Add0~17_sumout\ $end
$var wire 1 u! \INSTR|MUX2|saida_MUX[8]~4_combout\ $end
$var wire 1 v! \INSTR|ROM|memROM~7_combout\ $end
$var wire 1 w! \ULA1|saida[0]~0_combout\ $end
$var wire 1 x! \REG_A|DOUT\ [7] $end
$var wire 1 y! \REG_A|DOUT\ [6] $end
$var wire 1 z! \REG_A|DOUT\ [5] $end
$var wire 1 {! \REG_A|DOUT\ [4] $end
$var wire 1 |! \REG_A|DOUT\ [3] $end
$var wire 1 }! \REG_A|DOUT\ [2] $end
$var wire 1 ~! \REG_A|DOUT\ [1] $end
$var wire 1 !" \REG_A|DOUT\ [0] $end
$var wire 1 "" \INSTR|PC|DOUT\ [8] $end
$var wire 1 #" \INSTR|PC|DOUT\ [7] $end
$var wire 1 $" \INSTR|PC|DOUT\ [6] $end
$var wire 1 %" \INSTR|PC|DOUT\ [5] $end
$var wire 1 &" \INSTR|PC|DOUT\ [4] $end
$var wire 1 '" \INSTR|PC|DOUT\ [3] $end
$var wire 1 (" \INSTR|PC|DOUT\ [2] $end
$var wire 1 )" \INSTR|PC|DOUT\ [1] $end
$var wire 1 *" \INSTR|PC|DOUT\ [0] $end
$var wire 1 +" \INSTR|SOMA_CONST|ALT_INV_Add0~9_sumout\ $end
$var wire 1 ," \INSTR|SOMA_CONST|ALT_INV_Add0~5_sumout\ $end
$var wire 1 -" \INSTR|SOMA_CONST|ALT_INV_Add0~1_sumout\ $end
$var wire 1 ." \ULA1|ALT_INV_Add1~29_sumout\ $end
$var wire 1 /" \ULA1|ALT_INV_Add1~25_sumout\ $end
$var wire 1 0" \ULA1|ALT_INV_Add1~21_sumout\ $end
$var wire 1 1" \ULA1|ALT_INV_Add1~17_sumout\ $end
$var wire 1 2" \ULA1|ALT_INV_Add1~13_sumout\ $end
$var wire 1 3" \ULA1|ALT_INV_Add1~9_sumout\ $end
$var wire 1 4" \ULA1|ALT_INV_Add1~5_sumout\ $end
$var wire 1 5" \ULA1|ALT_INV_Add1~1_sumout\ $end
$var wire 1 6" \REG_A|ALT_INV_DOUT\ [7] $end
$var wire 1 7" \REG_A|ALT_INV_DOUT\ [6] $end
$var wire 1 8" \REG_A|ALT_INV_DOUT\ [5] $end
$var wire 1 9" \REG_A|ALT_INV_DOUT\ [4] $end
$var wire 1 :" \REG_A|ALT_INV_DOUT\ [3] $end
$var wire 1 ;" \REG_A|ALT_INV_DOUT\ [2] $end
$var wire 1 <" \REG_A|ALT_INV_DOUT\ [1] $end
$var wire 1 =" \REG_A|ALT_INV_DOUT\ [0] $end
$var wire 1 >" \FLAG|ALT_INV_DOUT~2_combout\ $end
$var wire 1 ?" \FLAG|ALT_INV_DOUT~1_combout\ $end
$var wire 1 @" \INSTR|ROM|ALT_INV_memROM~17_combout\ $end
$var wire 1 A" \INSTR|ROM|ALT_INV_memROM~16_combout\ $end
$var wire 1 B" \MDADOS|ALT_INV_process_0~0_combout\ $end
$var wire 1 C" \MUX1|ALT_INV_saida_MUX[7]~1_combout\ $end
$var wire 1 D" \MDADOS|ALT_INV_ram~160_combout\ $end
$var wire 1 E" \MDADOS|ALT_INV_ram~159_combout\ $end
$var wire 1 F" \MDADOS|ALT_INV_ram~24_q\ $end
$var wire 1 G" \MDADOS|ALT_INV_ram~158_combout\ $end
$var wire 1 H" \MDADOS|ALT_INV_ram~157_combout\ $end
$var wire 1 I" \MDADOS|ALT_INV_ram~23_q\ $end
$var wire 1 J" \MDADOS|ALT_INV_ram~156_combout\ $end
$var wire 1 K" \MDADOS|ALT_INV_ram~155_combout\ $end
$var wire 1 L" \MDADOS|ALT_INV_ram~22_q\ $end
$var wire 1 M" \MDADOS|ALT_INV_ram~154_combout\ $end
$var wire 1 N" \MDADOS|ALT_INV_ram~153_combout\ $end
$var wire 1 O" \MDADOS|ALT_INV_ram~21_q\ $end
$var wire 1 P" \MDADOS|ALT_INV_ram~152_combout\ $end
$var wire 1 Q" \MDADOS|ALT_INV_ram~151_combout\ $end
$var wire 1 R" \MDADOS|ALT_INV_ram~20_q\ $end
$var wire 1 S" \MDADOS|ALT_INV_ram~150_combout\ $end
$var wire 1 T" \MDADOS|ALT_INV_ram~149_combout\ $end
$var wire 1 U" \MDADOS|ALT_INV_ram~19_q\ $end
$var wire 1 V" \MDADOS|ALT_INV_ram~148_combout\ $end
$var wire 1 W" \MDADOS|ALT_INV_ram~147_combout\ $end
$var wire 1 X" \MDADOS|ALT_INV_ram~18_q\ $end
$var wire 1 Y" \MUX1|ALT_INV_saida_MUX[7]~0_combout\ $end
$var wire 1 Z" \DECODER|ALT_INV_OP_ULA[1]~0_combout\ $end
$var wire 1 [" \INSTR|ROM|ALT_INV_memROM~15_combout\ $end
$var wire 1 \" \MDADOS|ALT_INV_ram~146_combout\ $end
$var wire 1 ]" \MDADOS|ALT_INV_ram~145_combout\ $end
$var wire 1 ^" \MDADOS|ALT_INV_ram~17_q\ $end
$var wire 1 _" \INSTR|ROM|ALT_INV_memROM~14_combout\ $end
$var wire 1 `" \INSTR|ROM|ALT_INV_memROM~13_combout\ $end
$var wire 1 a" \INSTR|ROM|ALT_INV_memROM~12_combout\ $end
$var wire 1 b" \INSTR|ROM|ALT_INV_memROM~11_combout\ $end
$var wire 1 c" \INSTR|ROM|ALT_INV_memROM~10_combout\ $end
$var wire 1 d" \INSTR|ROM|ALT_INV_memROM~9_combout\ $end
$var wire 1 e" \INSTR|ROM|ALT_INV_memROM~8_combout\ $end
$var wire 1 f" \INSTR|ROM|ALT_INV_memROM~7_combout\ $end
$var wire 1 g" \INSTR|ROM|ALT_INV_memROM~6_combout\ $end
$var wire 1 h" \INSTR|ROM|ALT_INV_memROM~5_combout\ $end
$var wire 1 i" \LOG_DESVIO|ALT_INV_DESV_JUMP~0_combout\ $end
$var wire 1 j" \INSTR|ROM|ALT_INV_memROM~4_combout\ $end
$var wire 1 k" \INSTR|PC|ALT_INV_DOUT\ [8] $end
$var wire 1 l" \INSTR|PC|ALT_INV_DOUT\ [7] $end
$var wire 1 m" \INSTR|PC|ALT_INV_DOUT\ [6] $end
$var wire 1 n" \INSTR|PC|ALT_INV_DOUT\ [5] $end
$var wire 1 o" \INSTR|PC|ALT_INV_DOUT\ [4] $end
$var wire 1 p" \INSTR|PC|ALT_INV_DOUT\ [3] $end
$var wire 1 q" \INSTR|PC|ALT_INV_DOUT\ [2] $end
$var wire 1 r" \INSTR|PC|ALT_INV_DOUT\ [1] $end
$var wire 1 s" \INSTR|PC|ALT_INV_DOUT\ [0] $end
$var wire 1 t" \INSTR|ROM|ALT_INV_memROM~3_combout\ $end
$var wire 1 u" \INSTR|ROM|ALT_INV_memROM~2_combout\ $end
$var wire 1 v" \INSTR|ROM|ALT_INV_memROM~1_combout\ $end
$var wire 1 w" \FLAG|ALT_INV_DOUT~q\ $end
$var wire 1 x" \INSTR|ROM|ALT_INV_memROM~0_combout\ $end
$var wire 1 y" \INSTR|SOMA_CONST|ALT_INV_Add0~33_sumout\ $end
$var wire 1 z" \INSTR|SOMA_CONST|ALT_INV_Add0~29_sumout\ $end
$var wire 1 {" \INSTR|SOMA_CONST|ALT_INV_Add0~25_sumout\ $end
$var wire 1 |" \INSTR|SOMA_CONST|ALT_INV_Add0~21_sumout\ $end
$var wire 1 }" \INSTR|SOMA_CONST|ALT_INV_Add0~17_sumout\ $end
$var wire 1 ~" \INSTR|SOMA_CONST|ALT_INV_Add0~13_sumout\ $end
$upscope $end
$upscope $end
$enddefinitions $end
#0
$dumpvars
x!
1+
08
19
x:
1;
1<
1=
1>
1?
1@
xA
1N
xX
xY
xZ
x[
0\
0]
0^
0_
0`
0a
0b
0c
1d
0e
0f
1g
0h
0i
0j
0k
0l
0m
0n
1o
0p
0q
0r
0s
0t
0u
0v
0w
0x
0y
0z
0{
0|
0}
0~
0!!
0"!
1#!
1$!
0%!
0&!
1'!
0(!
0)!
0*!
0+!
0,!
1-!
1.!
0/!
00!
01!
12!
03!
04!
05!
06!
07!
08!
09!
0:!
0;!
0<!
0=!
0>!
0?!
1@!
1A!
0B!
0C!
0D!
0E!
0F!
1G!
0H!
0I!
0J!
0K!
0L!
1M!
0N!
0O!
0P!
0Q!
0R!
1S!
0T!
0U!
0V!
0W!
0X!
0Y!
1Z!
0[!
0\!
0]!
0^!
0_!
1`!
0a!
0b!
0c!
0d!
0e!
1f!
0g!
0h!
0i!
0j!
0k!
0l!
1m!
0n!
0o!
0p!
1q!
0r!
0s!
0t!
0u!
0v!
0w!
1+"
1,"
0-"
1."
1/"
10"
11"
12"
13"
14"
15"
1>"
1?"
1@"
1A"
1B"
0C"
1D"
1E"
1F"
1G"
1H"
1I"
1J"
1K"
1L"
1M"
1N"
1O"
1P"
1Q"
1R"
1S"
1T"
1U"
1V"
1W"
1X"
0Y"
1Z"
1["
1\"
1]"
1^"
1_"
1`"
1a"
1b"
1c"
0d"
1e"
1f"
1g"
0h"
0i"
0j"
0t"
1u"
1v"
1w"
1x"
1y"
1z"
1{"
1|"
1}"
1~"
x,
x-
x.
0/
xB
xC
xD
0E
0F
0G
0H
0I
0J
0K
0L
0M
0O
0P
0Q
0R
0S
0T
1U
0V
0W
0x!
0y!
0z!
0{!
0|!
0}!
0~!
0!"
0""
0#"
0$"
0%"
0&"
0'"
0("
0)"
0*"
16"
17"
18"
19"
1:"
1;"
1<"
1="
1k"
1l"
1m"
1n"
1o"
1p"
1q"
1r"
1s"
0"
0#
0$
0%
0&
0'
1(
0)
0*
00
01
02
03
04
05
06
07
$end
#25000
1/
1E
1n
1("
0q"
1&!
0-!
1>!
0g"
1t"
0+"
0.!
11!
02!
14!
0m!
1?!
1v!
0f"
0A"
1i"
1Y"
0Z"
1C"
1H!
0M!
1I!
1i!
0A!
1p
1w!
05"
03"
1e
0d
1B!
0G!
1N!
0S!
02"
04"
1W
0N
1T!
0Z!
0H!
1*
0+
13"
01"
1[!
0`!
00"
1a!
0f!
0/"
1g!
0."
#50000
0/
0E
0n
#75000
1/
1E
1n
1*"
1}!
1!"
0="
0;"
0s"
0o
1s
0$!
1/!
15!
0>!
1H!
0i!
1A!
15"
03"
1g"
0`"
0v"
1d"
1-"
1\
1^
0B!
1G!
1)!
0p
1%!
10!
12!
1U!
16!
1r!
0?!
0v!
0,"
14"
1M
1K
0H!
1M!
1f"
1A"
0_"
0B"
0@"
0Y"
0["
0c"
17
15
1*!
13"
01!
04!
1H!
0I!
1i!
17!
0w!
0N!
1S!
12"
05"
03"
1Z"
0e
1m
0T!
1Z!
0g
13!
1V!
1\!
1b!
1I!
1w!
11"
0W
1O
0[!
1`!
0U
0*
1"
03!
10"
0(
0a!
1f!
0V!
1/"
0g!
0\!
1."
0b!
#100000
0/
0E
0n
#125000
1/
1E
1n
0*"
1)"
1;!
1J!
0U"
0^"
0r"
1s"
1o
0s
0)!
1t
1+!
1,!
0/!
1<!
1K!
0T"
0]"
1v"
0u"
0x"
1,"
0-"
0&!
1u
1)!
0t
1p
0*!
1.!
06!
00!
0U!
1=!
1L!
0,"
1+"
1&!
0u
1v
0S"
0\"
1@"
1["
1B"
0C"
0'!
1*!
0~"
0+"
07!
1h!
0i!
0H!
0v
1'!
1w
1~"
13"
15"
0?"
0w!
0I!
1j!
0w
0>"
1k!
#150000
0/
0E
0n
#175000
1/
1E
1n
1*"
1l!
0w"
0s"
0o
1s
0+!
0,!
1-!
05!
1>!
0g"
1`"
0t"
1u"
1x"
1-"
0)!
1t
0p
0h!
1m!
0r!
1?!
1v!
1,"
0&!
1u
0f"
0A"
1_"
0i"
1?"
0*!
1+"
0'!
1p
0<!
0K!
1v
0~"
1T"
1]"
1e
0m
1d
0=!
0L!
1W
0O
1N
1S"
1\"
1*
0"
1+
1i!
1H!
03"
05"
1w!
1I!
#200000
0/
0E
0n
#225000
1/
1E
1n
0("
0)"
1r"
1q"
1&!
0u
1q
1)!
0t
1/!
0v"
0,"
0b"
0+"
0&!
0v
1r
10!
1U!
1~"
1+"
0@"
0["
0a"
1w
1h
1T
1'
#250000
0/
0E
0n
#275000
1/
1E
1n
1'"
0p"
0q
1v
1$!
0-!
0/!
0>!
1g"
1v"
1t"
0d"
0~"
1b"
0r
0%!
0.!
00!
02!
0U!
0m!
0?!
0v!
1f"
1A"
1i"
1@"
1Y"
1["
1C"
1c"
1a"
11!
14!
0H!
1*!
0p
1<!
1K!
0T"
0]"
13"
0Z"
0e
0d
0h
1g
0w!
0W
0N
0T
1U
0*
0'
0+
1(
#300000
0/
0E
0n
#325000
1/
1E
1n
0*"
1)"
0!"
1="
0r"
1s"
1o
0s
0)!
1t
0$!
1+!
1,!
15!
0i!
15"
0`"
0u"
0x"
1d"
1,"
0-"
0\
1&!
1)!
0t
1p
0*!
1%!
1.!
01!
12!
04!
1h!
1r!
0,"
0+"
0M
0&!
0_"
0?"
0Y"
1Z"
0C"
0c"
07
1'!
1*!
1+"
1=!
1L!
1H!
0I!
0'!
03"
0S"
0\"
1m
0g
1i!
0A!
0H!
1I!
0j!
1O
1>"
13"
05"
0U
1"
1B!
0G!
0(
1w!
0I!
0k!
04"
1H!
0M!
1C!
03"
1N!
0S!
1I!
02"
1T!
0Z!
1O!
01"
1[!
0`!
13!
00"
1a!
0f!
1V!
0/"
1g!
1\!
0."
1b!
#350000
0/
0E
0n
#375000
1/
1E
1n
1*"
0l!
1w"
0s"
0o
1s
1(!
0+!
0,!
1-!
1/!
05!
1>!
0g"
1`"
0v"
0t"
1u"
1x"
0e"
1-"
0)!
1t
0p
0<!
0K!
0h!
10!
1U!
0r!
1?!
1v!
1,"
1&!
0f"
0A"
1_"
0@"
0["
1?"
1T"
1]"
1f
0*!
0+"
0=!
0L!
1V
1'!
1S"
1\"
1)
1e
0m
0i!
1A!
0H!
1M!
1W
0O
13"
15"
1*
0"
0N!
1S!
0B!
1G!
0w!
0I!
14"
12"
1H!
0T!
1Z!
0O!
0C!
11"
03"
0[!
1`!
1I!
03!
10"
0a!
1f!
0V!
1/"
0g!
0\!
1."
0b!
#400000
0/
0E
0n
#425000
1/
1E
1n
0*"
1("
0)"
1r"
0q"
1s"
1o
0s
0&!
1u
1q
1)!
0t
1$!
0(!
0/!
0>!
1g"
1v"
1e"
0d"
0,"
0b"
1+"
0-"
1&!
0u
0v
1x
0)!
1p
0'!
1r
0%!
1*!
00!
0U!
1m!
0?!
0v!
1,"
1~"
0+"
1y
1v
0x
1f"
1A"
0i"
1@"
1["
1c"
0a"
0f
1'!
0w
0*!
0~"
0y"
1w
0p
1<!
1K!
0y
0V
1y"
0T"
0]"
0)
0e
1d
1h
1g
0W
1N
1T
1U
0*
1'
1+
1(
#450000
0/
0E
0n
#475000
1/
1E
1n
#500000
0/
0E
0n
#525000
1/
1E
1n
#550000
0/
0E
0n
#575000
1/
1E
1n
#600000
0/
0E
0n
#625000
1/
1E
1n
#650000
0/
0E
0n
#675000
1/
1E
1n
#700000
0/
0E
0n
#725000
1/
1E
1n
#750000
0/
0E
0n
#775000
1/
1E
1n
#800000
0/
0E
0n
#825000
1/
1E
1n
#850000
0/
0E
0n
#875000
1/
1E
1n
#900000
0/
0E
0n
#925000
1/
1E
1n
#950000
0/
0E
0n
#975000
1/
1E
1n
